[
    {
        "quarter_number": 4,
        "building_number": 3,
        "section_number": 2,
        "floor_number": 1,
        "number": 1,
        "room_count": 2,
        "square": 34.6,
        "status": 1,
        "cost_per_meter": 5200.78
    },
    {
        "quarter_number": 4,
        "building_number": 3,
        "section_number": 2,
        "floor_number": 1,
        "number": 2,
        "room_count": 4,
        "square": 94.67,
        "status": 1,
        "cost_per_meter": 5200.78
    },
    {
        "quarter_number": 4,
        "building_number": 3,
        "section_number": 2,
        "floor_number": 1,
        "number": 3,
        "room_count": 3,
        "square": 60.1,
        "status": 1,
        "cost_per_meter": 5200.78
    }
]